{
	"parameters": [
		{
			"name": "BUSINESS_APPLICATION_NAME",
			"value": "kcim"
		},
		{
			"name": "BUSINESS_APPLICATION_VERSION_NAME",
			"value": "cdd-akci-test"
		},
		{
			"name": "APPLICATION_NAME",
			"value": "akci"
		},
		{
			"name": "APPLICATION_VERSION_NAME",
			"value": "cdd-akci-test"
		},
		{
			"name": "BUSINESS_APPLICATION_OWNER",
			"value": "612866025"
		},
		{
			"name": "PHASE_NAME",
			"value": "DEV"
		},
		{
			"name": "ADAPTIVE_TESTING_TAGS",
			"value": "TV_REGBTTV222"
		},
		{
			"name": "ONLY_INTELLIGENT_TEST_SUITES",
			"value": "false"
		}
	],
    "reference": {
        "fileName": "kcim_release_template.json",
        "fileSource": "kcim_template_filesource"
    }
}